(0, '0.043*"в" + 0.023*"карантин" + 0.023*"и" + 0.020*"то" + 0.019*"если" + 0.018*"что" + 0.016*"не" + 0.014*"быть" + 0.012*"а" + 0.011*"на"')
(1, '0.045*"в" + 0.035*"и" + 0.024*"на" + 0.023*"про" + 0.019*"карантин" + 0.016*"не" + 0.015*"быть" + 0.015*"для" + 0.014*"объявить" + 0.011*"что"')
(2, '0.046*"в" + 0.031*"на" + 0.029*"и" + 0.028*"карантин" + 0.027*"я" + 0.019*"с" + 0.016*"не" + 0.012*"это" + 0.011*"весь" + 0.010*"всё"')
(3, '0.042*"за" + 0.040*"в" + 0.033*"—" + 0.027*"не" + 0.024*"ни" + 0.016*"на" + 0.015*"с" + 0.013*"от" + 0.011*"что" + 0.011*"заболеть"')
(4, '0.117*"не" + 0.046*"и" + 0.038*"что" + 0.029*"от" + 0.025*"я" + 0.020*"это" + 0.017*"а" + 0.017*"на" + 0.016*"в" + 0.016*"но"')
(5, '0.035*"в" + 0.030*"мы" + 0.028*"с" + 0.026*"#covid19" + 0.025*"и" + 0.016*"." + 0.016*"да" + 0.015*"до" + 0.013*"под" + 0.013*"карантин"')
(6, '0.043*"этот" + 0.031*"что" + 0.023*"в" + 0.023*"на" + 0.020*"и" + 0.016*"карантин" + 0.015*"это" + 0.013*"не" + 0.013*"сделать" + 0.012*"конец"')
(7, '0.052*"в" + 0.048*"covid-19" + 0.020*"случай" + 0.018*"заражение" + 0.018*"новый" + 0.018*"и" + 0.016*"на" + 0.015*"россия" + 0.012*"коронавирус" + 0.012*"москва"')
(8, '0.041*"и" + 0.039*"в" + 0.025*"карантина." + 0.024*"на" + 0.022*"я" + 0.015*"а" + 0.014*"с" + 0.014*"карантин" + 0.012*"идти" + 0.011*"всё"')
(9, '0.041*"вы" + 0.036*"мы" + 0.021*"в" + 0.020*"на" + 0.017*"вирус" + 0.017*"с" + 0.015*"не" + 0.012*"карантин?" + 0.012*"а" + 0.011*"что"')
(10, '0.051*"в" + 0.022*"они" + 0.019*"и" + 0.018*"на" + 0.017*"с" + 0.017*"не" + 0.012*"карантин" + 0.011*"это" + 0.011*"быть" + 0.010*"респиратор"')
(11, '0.094*"я" + 0.043*"карантин" + 0.038*"что" + 0.027*"не" + 0.025*"на" + 0.021*"и" + 0.018*"в" + 0.018*"а" + 0.016*"всё" + 0.014*"делать"')
(12, '0.104*"-" + 0.065*"карантин" + 0.024*"на" + 0.017*"и" + 0.015*"быть" + 0.015*"месяц" + 0.013*"в" + 0.013*"не" + 0.011*"другой" + 0.009*"как"')
(13, '0.131*"и" + 0.096*"в" + 0.029*"с" + 0.025*"на" + 0.016*"карантин" + 0.013*"я" + 0.012*"что" + 0.011*"это" + 0.010*"не" + 0.010*"быть"')
(14, '0.065*"о" + 0.037*"коронавирус" + 0.033*"в" + 0.026*"бы" + 0.024*"и" + 0.019*"не" + 0.017*"быть" + 0.014*"с" + 0.014*"борьба" + 0.013*"карантин"')
(15, '0.063*"в" + 0.034*"и" + 0.021*"на" + 0.018*"ввести" + 0.018*"как" + 0.017*"не" + 0.014*"с" + 0.013*"больной" + 0.011*"что" + 0.011*"наш"')
(16, '0.038*"у" + 0.033*"или" + 0.029*"и" + 0.022*"в" + 0.020*"на" + 0.020*"#карантин" + 0.018*"нет" + 0.016*"не" + 0.013*"что" + 0.011*"есть"')
(17, '0.052*"в" + 0.030*"до" + 0.029*"карантин," + 0.029*"какой" + 0.027*"с" + 0.027*"карантин" + 0.024*"карантина," + 0.023*"," + 0.020*"на" + 0.016*"я"')
(18, '0.063*"я" + 0.045*"ты" + 0.041*"карантин" + 0.033*"хотеть" + 0.024*"карантин." + 0.018*"не" + 0.017*"в" + 0.016*"на" + 0.016*"это" + 0.014*"с"')
(19, '0.057*"так" + 0.052*"на" + 0.031*"в" + 0.022*"и" + 0.021*"по" + 0.015*"что" + 0.014*"с" + 0.012*"как" + 0.011*"не" + 0.011*"а"')
